#small.csv
#
#
#
group,number,duration,numberOfArticles,numberOfBundles,minNumberOfNecessaryBundles
Subsets,1,38792914,5,4,2
Subsets,2,3886530,5,4,2
Subsets,3,3475945,5,4,-1
Subsets,4,2285917,5,4,2
Subsets,5,2816119,5,4,2
