Version 4
SHEET 1 880 680
WIRE 128 112 128 96
WIRE 128 208 128 192
FLAG 128 96 output
FLAG 128 208 0
SYMBOL voltage 128 96 R0
WINDOW 123 0 0 Left 2
WINDOW 39 0 0 Left 2
SYMATTR InstName V1
SYMATTR Value PULSE(0 3.4 0 1e-12 1e-12 0.00125 0.0025)
TEXT 158 222 Left 2 !.tran 0.5
