Version 4
SHEET 1 880 680
WIRE 128 112 128 96
WIRE 272 112 272 96
WIRE 416 112 416 96
WIRE 128 208 128 192
WIRE 272 208 272 192
WIRE 416 208 416 192
FLAG 128 96 signal
FLAG 128 208 0
FLAG 272 96 carrier
FLAG 272 208 0
FLAG 416 96 AM
FLAG 416 208 0
SYMBOL voltage 128 96 R0
WINDOW 123 0 0 Left 2
WINDOW 39 0 0 Left 2
SYMATTR InstName V1
SYMATTR Value SINE(1 .8 500)
SYMBOL voltage 272 96 R0
WINDOW 123 0 0 Left 2
WINDOW 39 0 0 Left 2
SYMATTR InstName V2
SYMATTR Value SINE(0 1.8 25k)
SYMBOL bv 416 96 R0
SYMATTR InstName B1
SYMATTR Value V=V(signal)*V(carrier)
TEXT 158 222 Left 2 !.tran 8m
