<mxfile host="Electron" agent="Mozilla/5.0 (X11; Linux x86_64) AppleWebKit/537.36 (KHTML, like Gecko) draw.io/25.0.2 Chrome/128.0.6613.186 Electron/32.2.5 Safari/537.36" version="25.0.2">
  <diagram name="Page-1" id="b8I2eUz7j5Yy-2Fr9wIU">
    <mxGraphModel dx="2074" dy="1224" grid="1" gridSize="10" guides="1" tooltips="1" connect="1" arrows="1" fold="1" page="1" pageScale="1" pageWidth="1169" pageHeight="827" math="0" shadow="0">
      <root>
        <mxCell id="0" />
        <mxCell id="1" parent="0" />
        <mxCell id="s2OKTM97njW7JF60JVZs-16" style="edgeStyle=orthogonalEdgeStyle;shape=connector;curved=1;rounded=0;orthogonalLoop=1;jettySize=auto;html=1;exitX=1;exitY=0.5;exitDx=0;exitDy=0;entryX=0;entryY=0.5;entryDx=0;entryDy=0;strokeColor=default;align=center;verticalAlign=middle;fontFamily=Helvetica;fontSize=12;fontColor=default;labelBackgroundColor=default;endArrow=classic;strokeWidth=2;" parent="1" source="s2OKTM97njW7JF60JVZs-2" target="s2OKTM97njW7JF60JVZs-3" edge="1">
          <mxGeometry relative="1" as="geometry" />
        </mxCell>
        <mxCell id="s2OKTM97njW7JF60JVZs-50" value="&lt;font style=&quot;font-size: 16px;&quot;&gt;start=1&lt;/font&gt;" style="edgeLabel;html=1;align=center;verticalAlign=middle;resizable=0;points=[];strokeColor=default;strokeWidth=2;fontFamily=Helvetica;fontSize=12;fontColor=default;labelBackgroundColor=default;fillColor=default;gradientColor=none;" parent="s2OKTM97njW7JF60JVZs-16" vertex="1" connectable="0">
          <mxGeometry x="-0.4048" relative="1" as="geometry">
            <mxPoint x="10" y="18" as="offset" />
          </mxGeometry>
        </mxCell>
        <mxCell id="s2OKTM97njW7JF60JVZs-2" value="&lt;font face=&quot;Ubuntu&quot; style=&quot;font-size: 20px;&quot;&gt;x1&lt;/font&gt;" style="ellipse;whiteSpace=wrap;html=1;aspect=fixed;strokeWidth=2;" parent="1" vertex="1">
          <mxGeometry x="240" y="200" width="60" height="60" as="geometry" />
        </mxCell>
        <mxCell id="s2OKTM97njW7JF60JVZs-17" style="edgeStyle=orthogonalEdgeStyle;shape=connector;curved=1;rounded=0;orthogonalLoop=1;jettySize=auto;html=1;exitX=1;exitY=0.5;exitDx=0;exitDy=0;entryX=0;entryY=0.5;entryDx=0;entryDy=0;strokeColor=default;align=center;verticalAlign=middle;fontFamily=Helvetica;fontSize=12;fontColor=default;labelBackgroundColor=default;endArrow=classic;strokeWidth=2;" parent="1" source="s2OKTM97njW7JF60JVZs-3" target="s2OKTM97njW7JF60JVZs-4" edge="1">
          <mxGeometry relative="1" as="geometry" />
        </mxCell>
        <mxCell id="s2OKTM97njW7JF60JVZs-3" value="&lt;font face=&quot;Ubuntu&quot; style=&quot;font-size: 20px;&quot;&gt;x2&lt;/font&gt;" style="ellipse;whiteSpace=wrap;html=1;aspect=fixed;strokeWidth=2;" parent="1" vertex="1">
          <mxGeometry x="360" y="200" width="60" height="60" as="geometry" />
        </mxCell>
        <mxCell id="s2OKTM97njW7JF60JVZs-18" style="edgeStyle=orthogonalEdgeStyle;shape=connector;curved=1;rounded=0;orthogonalLoop=1;jettySize=auto;html=1;exitX=1;exitY=0.5;exitDx=0;exitDy=0;entryX=0;entryY=0.5;entryDx=0;entryDy=0;strokeColor=default;strokeWidth=2;align=center;verticalAlign=middle;fontFamily=Helvetica;fontSize=12;fontColor=default;labelBackgroundColor=default;endArrow=classic;" parent="1" source="s2OKTM97njW7JF60JVZs-4" target="s2OKTM97njW7JF60JVZs-5" edge="1">
          <mxGeometry relative="1" as="geometry" />
        </mxCell>
        <mxCell id="s2OKTM97njW7JF60JVZs-4" value="&lt;font face=&quot;Ubuntu&quot; style=&quot;font-size: 20px;&quot;&gt;x3&lt;/font&gt;" style="ellipse;whiteSpace=wrap;html=1;aspect=fixed;strokeWidth=2;" parent="1" vertex="1">
          <mxGeometry x="480" y="200" width="60" height="60" as="geometry" />
        </mxCell>
        <mxCell id="s2OKTM97njW7JF60JVZs-19" style="edgeStyle=orthogonalEdgeStyle;shape=connector;curved=1;rounded=0;orthogonalLoop=1;jettySize=auto;html=1;exitX=1;exitY=0.5;exitDx=0;exitDy=0;entryX=0;entryY=0.5;entryDx=0;entryDy=0;strokeColor=default;strokeWidth=2;align=center;verticalAlign=middle;fontFamily=Helvetica;fontSize=12;fontColor=default;labelBackgroundColor=default;endArrow=classic;" parent="1" source="s2OKTM97njW7JF60JVZs-5" target="s2OKTM97njW7JF60JVZs-6" edge="1">
          <mxGeometry relative="1" as="geometry" />
        </mxCell>
        <mxCell id="s2OKTM97njW7JF60JVZs-5" value="&lt;font face=&quot;Ubuntu&quot; style=&quot;font-size: 20px;&quot;&gt;x4&lt;/font&gt;" style="ellipse;whiteSpace=wrap;html=1;aspect=fixed;strokeWidth=2;" parent="1" vertex="1">
          <mxGeometry x="600" y="200" width="60" height="60" as="geometry" />
        </mxCell>
        <mxCell id="s2OKTM97njW7JF60JVZs-45" style="edgeStyle=orthogonalEdgeStyle;shape=connector;curved=1;rounded=0;orthogonalLoop=1;jettySize=auto;html=1;exitX=1;exitY=0.5;exitDx=0;exitDy=0;entryX=1;entryY=0.5;entryDx=0;entryDy=0;strokeColor=default;strokeWidth=2;align=center;verticalAlign=middle;fontFamily=Helvetica;fontSize=12;fontColor=default;labelBackgroundColor=default;endArrow=classic;" parent="1" source="s2OKTM97njW7JF60JVZs-6" target="s2OKTM97njW7JF60JVZs-7" edge="1">
          <mxGeometry relative="1" as="geometry">
            <Array as="points">
              <mxPoint x="820" y="230" />
              <mxPoint x="820" y="350" />
            </Array>
          </mxGeometry>
        </mxCell>
        <mxCell id="s2OKTM97njW7JF60JVZs-6" value="&lt;font face=&quot;Ubuntu&quot; style=&quot;font-size: 20px;&quot;&gt;x5&lt;/font&gt;" style="ellipse;whiteSpace=wrap;html=1;aspect=fixed;strokeWidth=2;" parent="1" vertex="1">
          <mxGeometry x="720" y="200" width="60" height="60" as="geometry" />
        </mxCell>
        <mxCell id="s2OKTM97njW7JF60JVZs-26" value="" style="edgeStyle=orthogonalEdgeStyle;shape=connector;curved=1;rounded=0;orthogonalLoop=1;jettySize=auto;html=1;strokeColor=default;strokeWidth=2;align=center;verticalAlign=middle;fontFamily=Helvetica;fontSize=12;fontColor=default;labelBackgroundColor=default;endArrow=classic;" parent="1" source="s2OKTM97njW7JF60JVZs-7" target="s2OKTM97njW7JF60JVZs-8" edge="1">
          <mxGeometry relative="1" as="geometry" />
        </mxCell>
        <mxCell id="s2OKTM97njW7JF60JVZs-7" value="&lt;font face=&quot;Ubuntu&quot; style=&quot;font-size: 20px;&quot;&gt;x6&lt;/font&gt;" style="ellipse;whiteSpace=wrap;html=1;aspect=fixed;strokeWidth=2;" parent="1" vertex="1">
          <mxGeometry x="720" y="320" width="60" height="60" as="geometry" />
        </mxCell>
        <mxCell id="s2OKTM97njW7JF60JVZs-27" value="" style="edgeStyle=orthogonalEdgeStyle;shape=connector;curved=1;rounded=0;orthogonalLoop=1;jettySize=auto;html=1;strokeColor=default;strokeWidth=2;align=center;verticalAlign=middle;fontFamily=Helvetica;fontSize=12;fontColor=default;labelBackgroundColor=default;endArrow=classic;" parent="1" source="s2OKTM97njW7JF60JVZs-8" target="s2OKTM97njW7JF60JVZs-9" edge="1">
          <mxGeometry relative="1" as="geometry" />
        </mxCell>
        <mxCell id="X5_SJ7del2LNC4ogo3b6-6" style="edgeStyle=orthogonalEdgeStyle;shape=connector;curved=1;rounded=0;orthogonalLoop=1;jettySize=auto;html=1;exitX=0;exitY=0.5;exitDx=0;exitDy=0;entryX=1;entryY=0.5;entryDx=0;entryDy=0;strokeColor=default;strokeWidth=2;align=center;verticalAlign=middle;fontFamily=Helvetica;fontSize=11;fontColor=default;labelBackgroundColor=default;endArrow=classic;" parent="1" source="s2OKTM97njW7JF60JVZs-8" target="X5_SJ7del2LNC4ogo3b6-2" edge="1">
          <mxGeometry relative="1" as="geometry" />
        </mxCell>
        <mxCell id="s2OKTM97njW7JF60JVZs-8" value="&lt;font face=&quot;Ubuntu&quot; style=&quot;font-size: 20px;&quot;&gt;x7&lt;/font&gt;" style="ellipse;whiteSpace=wrap;html=1;aspect=fixed;strokeWidth=2;" parent="1" vertex="1">
          <mxGeometry x="600" y="320" width="60" height="60" as="geometry" />
        </mxCell>
        <mxCell id="s2OKTM97njW7JF60JVZs-28" value="" style="edgeStyle=orthogonalEdgeStyle;shape=connector;curved=1;rounded=0;orthogonalLoop=1;jettySize=auto;html=1;strokeColor=default;strokeWidth=2;align=center;verticalAlign=middle;fontFamily=Helvetica;fontSize=12;fontColor=default;labelBackgroundColor=default;endArrow=classic;" parent="1" source="s2OKTM97njW7JF60JVZs-9" target="s2OKTM97njW7JF60JVZs-10" edge="1">
          <mxGeometry relative="1" as="geometry" />
        </mxCell>
        <mxCell id="s2OKTM97njW7JF60JVZs-9" value="&lt;font face=&quot;Ubuntu&quot; style=&quot;font-size: 20px;&quot;&gt;x8&lt;/font&gt;" style="ellipse;whiteSpace=wrap;html=1;aspect=fixed;strokeWidth=2;" parent="1" vertex="1">
          <mxGeometry x="480" y="320" width="60" height="60" as="geometry" />
        </mxCell>
        <mxCell id="s2OKTM97njW7JF60JVZs-29" value="" style="edgeStyle=orthogonalEdgeStyle;shape=connector;curved=1;rounded=0;orthogonalLoop=1;jettySize=auto;html=1;strokeColor=default;strokeWidth=2;align=center;verticalAlign=middle;fontFamily=Helvetica;fontSize=12;fontColor=default;labelBackgroundColor=default;endArrow=classic;" parent="1" source="s2OKTM97njW7JF60JVZs-10" target="s2OKTM97njW7JF60JVZs-11" edge="1">
          <mxGeometry relative="1" as="geometry" />
        </mxCell>
        <mxCell id="s2OKTM97njW7JF60JVZs-10" value="&lt;font face=&quot;Ubuntu&quot; style=&quot;font-size: 20px;&quot;&gt;x10&lt;/font&gt;" style="ellipse;whiteSpace=wrap;html=1;aspect=fixed;strokeWidth=2;" parent="1" vertex="1">
          <mxGeometry x="360" y="320" width="60" height="60" as="geometry" />
        </mxCell>
        <mxCell id="s2OKTM97njW7JF60JVZs-51" style="edgeStyle=orthogonalEdgeStyle;shape=connector;curved=1;rounded=0;orthogonalLoop=1;jettySize=auto;html=1;exitX=0;exitY=0.5;exitDx=0;exitDy=0;entryX=0;entryY=0.5;entryDx=0;entryDy=0;strokeColor=default;strokeWidth=2;align=center;verticalAlign=middle;fontFamily=Helvetica;fontSize=12;fontColor=default;labelBackgroundColor=default;endArrow=classic;" parent="1" source="s2OKTM97njW7JF60JVZs-11" target="s2OKTM97njW7JF60JVZs-2" edge="1">
          <mxGeometry relative="1" as="geometry">
            <Array as="points">
              <mxPoint x="190" y="350" />
              <mxPoint x="190" y="230" />
            </Array>
          </mxGeometry>
        </mxCell>
        <mxCell id="s2OKTM97njW7JF60JVZs-52" value="&lt;font style=&quot;font-size: 16px;&quot;&gt;ack=1&lt;/font&gt;" style="edgeLabel;html=1;align=center;verticalAlign=middle;resizable=0;points=[];strokeColor=default;strokeWidth=2;fontFamily=Helvetica;fontSize=12;fontColor=default;labelBackgroundColor=default;fillColor=default;gradientColor=none;" parent="s2OKTM97njW7JF60JVZs-51" vertex="1" connectable="0">
          <mxGeometry x="-0.001" y="2" relative="1" as="geometry">
            <mxPoint as="offset" />
          </mxGeometry>
        </mxCell>
        <mxCell id="s2OKTM97njW7JF60JVZs-11" value="&lt;font face=&quot;Ubuntu&quot; style=&quot;font-size: 20px;&quot;&gt;x12&lt;/font&gt;" style="ellipse;whiteSpace=wrap;html=1;aspect=fixed;strokeWidth=2;" parent="1" vertex="1">
          <mxGeometry x="240" y="320" width="60" height="60" as="geometry" />
        </mxCell>
        <mxCell id="s2OKTM97njW7JF60JVZs-39" style="edgeStyle=orthogonalEdgeStyle;shape=connector;curved=1;rounded=0;orthogonalLoop=1;jettySize=auto;html=1;exitX=1;exitY=1;exitDx=0;exitDy=0;entryX=0;entryY=1;entryDx=0;entryDy=0;strokeColor=default;strokeWidth=2;align=center;verticalAlign=middle;fontFamily=Helvetica;fontSize=12;fontColor=default;labelBackgroundColor=default;endArrow=classic;" parent="1" source="s2OKTM97njW7JF60JVZs-11" target="s2OKTM97njW7JF60JVZs-11" edge="1">
          <mxGeometry relative="1" as="geometry">
            <Array as="points">
              <mxPoint x="310" y="371" />
              <mxPoint x="310" y="410" />
              <mxPoint x="230" y="410" />
              <mxPoint x="230" y="371" />
            </Array>
          </mxGeometry>
        </mxCell>
        <mxCell id="s2OKTM97njW7JF60JVZs-42" value="&lt;font style=&quot;font-size: 16px;&quot;&gt;ack=0&lt;/font&gt;" style="edgeLabel;html=1;align=center;verticalAlign=middle;resizable=0;points=[];strokeColor=default;strokeWidth=2;fontFamily=Helvetica;fontSize=12;fontColor=default;labelBackgroundColor=default;fillColor=default;gradientColor=none;" parent="s2OKTM97njW7JF60JVZs-39" vertex="1" connectable="0">
          <mxGeometry x="0.0068" y="-3" relative="1" as="geometry">
            <mxPoint x="-2" as="offset" />
          </mxGeometry>
        </mxCell>
        <mxCell id="s2OKTM97njW7JF60JVZs-53" style="edgeStyle=orthogonalEdgeStyle;shape=connector;curved=1;rounded=0;orthogonalLoop=1;jettySize=auto;html=1;exitX=0;exitY=0;exitDx=0;exitDy=0;entryX=1;entryY=0;entryDx=0;entryDy=0;strokeColor=default;strokeWidth=2;align=center;verticalAlign=middle;fontFamily=Helvetica;fontSize=12;fontColor=default;labelBackgroundColor=default;endArrow=classic;" parent="1" source="s2OKTM97njW7JF60JVZs-2" target="s2OKTM97njW7JF60JVZs-2" edge="1">
          <mxGeometry relative="1" as="geometry">
            <Array as="points">
              <mxPoint x="230" y="209" />
              <mxPoint x="230" y="170" />
              <mxPoint x="310" y="170" />
              <mxPoint x="310" y="209" />
            </Array>
          </mxGeometry>
        </mxCell>
        <mxCell id="s2OKTM97njW7JF60JVZs-54" value="&lt;font style=&quot;font-size: 16px;&quot;&gt;start=0&lt;/font&gt;" style="edgeLabel;html=1;align=center;verticalAlign=middle;resizable=0;points=[];strokeColor=default;strokeWidth=2;fontFamily=Helvetica;fontSize=12;fontColor=default;labelBackgroundColor=default;fillColor=default;gradientColor=none;" parent="s2OKTM97njW7JF60JVZs-53" vertex="1" connectable="0">
          <mxGeometry x="-0.0841" y="2" relative="1" as="geometry">
            <mxPoint x="8" y="2" as="offset" />
          </mxGeometry>
        </mxCell>
        <mxCell id="s2OKTM97njW7JF60JVZs-57" value="&lt;font face=&quot;Ubuntu&quot; style=&quot;font-size: 16px;&quot;&gt;hold t3&lt;/font&gt;" style="text;html=1;align=center;verticalAlign=middle;whiteSpace=wrap;rounded=0;fontFamily=Helvetica;fontSize=12;fontColor=default;labelBackgroundColor=default;resizable=0;" parent="1" vertex="1">
          <mxGeometry x="720" y="444" width="60" height="30" as="geometry" />
        </mxCell>
        <mxCell id="s2OKTM97njW7JF60JVZs-58" value="&lt;font face=&quot;Ubuntu&quot; style=&quot;font-size: 16px;&quot;&gt;hold t3&lt;/font&gt;" style="text;html=1;align=center;verticalAlign=middle;whiteSpace=wrap;rounded=0;fontFamily=Helvetica;fontSize=12;fontColor=default;labelBackgroundColor=default;resizable=0;" parent="1" vertex="1">
          <mxGeometry x="600" y="474" width="60" height="30" as="geometry" />
        </mxCell>
        <mxCell id="s2OKTM97njW7JF60JVZs-59" value="&lt;font face=&quot;Ubuntu&quot; style=&quot;font-size: 16px;&quot;&gt;hold t5&lt;/font&gt;" style="text;html=1;align=center;verticalAlign=middle;whiteSpace=wrap;rounded=0;fontFamily=Helvetica;fontSize=12;fontColor=default;labelBackgroundColor=default;resizable=0;" parent="1" vertex="1">
          <mxGeometry x="720" y="414" width="60" height="30" as="geometry" />
        </mxCell>
        <mxCell id="s2OKTM97njW7JF60JVZs-60" value="&lt;font face=&quot;Ubuntu&quot; style=&quot;font-size: 16px;&quot;&gt;hold t5&lt;/font&gt;" style="text;html=1;align=center;verticalAlign=middle;whiteSpace=wrap;rounded=0;fontFamily=Helvetica;fontSize=12;fontColor=default;labelBackgroundColor=default;resizable=0;" parent="1" vertex="1">
          <mxGeometry x="600" y="444" width="60" height="30" as="geometry" />
        </mxCell>
        <mxCell id="s2OKTM97njW7JF60JVZs-63" value="&lt;font face=&quot;Ubuntu&quot; style=&quot;font-size: 16px;&quot;&gt;hold t8&lt;/font&gt;" style="text;html=1;align=center;verticalAlign=middle;whiteSpace=wrap;rounded=0;fontFamily=Helvetica;fontSize=12;fontColor=default;labelBackgroundColor=default;resizable=0;" parent="1" vertex="1">
          <mxGeometry x="600" y="414" width="60" height="30" as="geometry" />
        </mxCell>
        <mxCell id="s2OKTM97njW7JF60JVZs-64" value="&lt;font face=&quot;Ubuntu&quot; style=&quot;font-size: 16px;&quot;&gt;hold t8&lt;/font&gt;" style="text;html=1;align=center;verticalAlign=middle;whiteSpace=wrap;rounded=0;fontFamily=Helvetica;fontSize=12;fontColor=default;labelBackgroundColor=default;resizable=0;" parent="1" vertex="1">
          <mxGeometry x="480" y="444" width="60" height="30" as="geometry" />
        </mxCell>
        <mxCell id="s2OKTM97njW7JF60JVZs-65" value="&lt;font face=&quot;Ubuntu&quot; style=&quot;font-size: 16px;&quot;&gt;hold t6&lt;/font&gt;" style="text;html=1;align=center;verticalAlign=middle;whiteSpace=wrap;rounded=0;fontFamily=Helvetica;fontSize=12;fontColor=default;labelBackgroundColor=default;resizable=0;" parent="1" vertex="1">
          <mxGeometry x="360" y="140" width="60" height="30" as="geometry" />
        </mxCell>
        <mxCell id="s2OKTM97njW7JF60JVZs-66" value="&lt;font face=&quot;Ubuntu&quot; style=&quot;font-size: 16px;&quot;&gt;hold t6&lt;/font&gt;" style="text;html=1;align=center;verticalAlign=middle;whiteSpace=wrap;rounded=0;fontFamily=Helvetica;fontSize=12;fontColor=default;labelBackgroundColor=default;resizable=0;" parent="1" vertex="1">
          <mxGeometry x="480" y="140" width="60" height="30" as="geometry" />
        </mxCell>
        <mxCell id="s2OKTM97njW7JF60JVZs-67" value="&lt;font face=&quot;Ubuntu&quot; style=&quot;font-size: 16px;&quot;&gt;hold t3&lt;/font&gt;" style="text;html=1;align=center;verticalAlign=middle;whiteSpace=wrap;rounded=0;fontFamily=Helvetica;fontSize=12;fontColor=default;labelBackgroundColor=default;resizable=0;" parent="1" vertex="1">
          <mxGeometry x="600" y="140" width="60" height="30" as="geometry" />
        </mxCell>
        <mxCell id="s2OKTM97njW7JF60JVZs-68" value="&lt;font face=&quot;Ubuntu&quot; style=&quot;font-size: 16px;&quot;&gt;hold t3&lt;/font&gt;" style="text;html=1;align=center;verticalAlign=middle;whiteSpace=wrap;rounded=0;fontFamily=Helvetica;fontSize=12;fontColor=default;labelBackgroundColor=default;resizable=0;" parent="1" vertex="1">
          <mxGeometry x="720" y="140" width="60" height="30" as="geometry" />
        </mxCell>
        <mxCell id="s2OKTM97njW7JF60JVZs-69" value="&lt;font face=&quot;Ubuntu&quot; style=&quot;font-size: 16px;&quot;&gt;hold tB&lt;/font&gt;" style="text;html=1;align=center;verticalAlign=middle;whiteSpace=wrap;rounded=0;fontFamily=Helvetica;fontSize=12;fontColor=default;labelBackgroundColor=default;resizable=1;" parent="1" vertex="1">
          <mxGeometry x="460" y="414" width="100" height="30" as="geometry" />
        </mxCell>
        <mxCell id="fUQHtLnft8Uc7ciIOA6I-3" value="&lt;font face=&quot;Ubuntu&quot; style=&quot;font-size: 16px;&quot;&gt;v13/14&lt;/font&gt;" style="text;html=1;align=center;verticalAlign=middle;whiteSpace=wrap;rounded=0;fontFamily=Helvetica;fontSize=12;fontColor=default;labelBackgroundColor=default;resizable=1;" parent="1" vertex="1">
          <mxGeometry x="475" y="384" width="70" height="30" as="geometry" />
        </mxCell>
        <mxCell id="fUQHtLnft8Uc7ciIOA6I-5" value="&lt;font face=&quot;Ubuntu&quot; style=&quot;font-size: 16px;&quot;&gt;v6, v1, v7&lt;/font&gt;" style="text;html=1;align=center;verticalAlign=middle;whiteSpace=wrap;rounded=0;fontFamily=Helvetica;fontSize=12;fontColor=default;labelBackgroundColor=default;resizable=1;" parent="1" vertex="1">
          <mxGeometry x="235" y="260" width="70" height="30" as="geometry" />
        </mxCell>
        <mxCell id="fUQHtLnft8Uc7ciIOA6I-6" value="&lt;font face=&quot;Ubuntu&quot; style=&quot;font-size: 16px;&quot;&gt;v4&lt;/font&gt;" style="text;html=1;align=center;verticalAlign=middle;whiteSpace=wrap;rounded=0;fontFamily=Helvetica;fontSize=12;fontColor=default;labelBackgroundColor=default;resizable=1;" parent="1" vertex="1">
          <mxGeometry x="355" y="170" width="70" height="30" as="geometry" />
        </mxCell>
        <mxCell id="fUQHtLnft8Uc7ciIOA6I-7" value="&lt;font face=&quot;Ubuntu&quot; style=&quot;font-size: 16px;&quot;&gt;s1, s7, v3, v5&lt;/font&gt;" style="text;html=1;align=center;verticalAlign=middle;whiteSpace=wrap;rounded=0;fontFamily=Helvetica;fontSize=12;fontColor=default;labelBackgroundColor=default;resizable=1;" parent="1" vertex="1">
          <mxGeometry x="460" y="170" width="100" height="30" as="geometry" />
        </mxCell>
        <mxCell id="fUQHtLnft8Uc7ciIOA6I-8" value="&lt;font face=&quot;Ubuntu&quot; style=&quot;font-size: 16px;&quot;&gt;s5&lt;/font&gt;" style="text;html=1;align=center;verticalAlign=middle;whiteSpace=wrap;rounded=0;fontFamily=Helvetica;fontSize=12;fontColor=default;labelBackgroundColor=default;resizable=1;" parent="1" vertex="1">
          <mxGeometry x="715" y="170" width="70" height="30" as="geometry" />
        </mxCell>
        <mxCell id="fUQHtLnft8Uc7ciIOA6I-9" value="&lt;font face=&quot;Ubuntu&quot; style=&quot;font-size: 16px;&quot;&gt;v9&lt;/font&gt;" style="text;html=1;align=center;verticalAlign=middle;whiteSpace=wrap;rounded=0;fontFamily=Helvetica;fontSize=12;fontColor=default;labelBackgroundColor=default;resizable=1;" parent="1" vertex="1">
          <mxGeometry x="595" y="384" width="70" height="30" as="geometry" />
        </mxCell>
        <mxCell id="fUQHtLnft8Uc7ciIOA6I-10" value="&lt;font face=&quot;Ubuntu&quot; style=&quot;font-size: 16px;&quot;&gt;v15/16/11&lt;/font&gt;" style="text;html=1;align=center;verticalAlign=middle;whiteSpace=wrap;rounded=0;fontFamily=Helvetica;fontSize=12;fontColor=default;labelBackgroundColor=default;resizable=1;" parent="1" vertex="1">
          <mxGeometry x="347.5" y="384" width="85" height="30" as="geometry" />
        </mxCell>
        <mxCell id="X5_SJ7del2LNC4ogo3b6-1" value="&lt;font face=&quot;Ubuntu&quot; style=&quot;font-size: 16px;&quot;&gt;s2, s8&lt;/font&gt;" style="text;html=1;align=center;verticalAlign=middle;whiteSpace=wrap;rounded=0;fontFamily=Helvetica;fontSize=12;fontColor=default;labelBackgroundColor=default;resizable=1;" parent="1" vertex="1">
          <mxGeometry x="715" y="384" width="70" height="30" as="geometry" />
        </mxCell>
        <mxCell id="X5_SJ7del2LNC4ogo3b6-5" style="edgeStyle=orthogonalEdgeStyle;rounded=0;orthogonalLoop=1;jettySize=auto;html=1;exitX=0;exitY=0.5;exitDx=0;exitDy=0;entryX=1;entryY=0.5;entryDx=0;entryDy=0;strokeWidth=2;curved=1;" parent="1" source="X5_SJ7del2LNC4ogo3b6-2" target="X5_SJ7del2LNC4ogo3b6-3" edge="1">
          <mxGeometry relative="1" as="geometry" />
        </mxCell>
        <mxCell id="X5_SJ7del2LNC4ogo3b6-2" value="&lt;font face=&quot;Ubuntu&quot; style=&quot;font-size: 20px;&quot;&gt;x9&lt;/font&gt;" style="ellipse;whiteSpace=wrap;html=1;aspect=fixed;strokeWidth=2;" parent="1" vertex="1">
          <mxGeometry x="480" y="504" width="60" height="60" as="geometry" />
        </mxCell>
        <mxCell id="X5_SJ7del2LNC4ogo3b6-4" style="edgeStyle=orthogonalEdgeStyle;rounded=0;orthogonalLoop=1;jettySize=auto;html=1;exitX=0;exitY=0.5;exitDx=0;exitDy=0;entryX=1;entryY=0.5;entryDx=0;entryDy=0;strokeWidth=2;curved=1;" parent="1" source="X5_SJ7del2LNC4ogo3b6-3" target="s2OKTM97njW7JF60JVZs-11" edge="1">
          <mxGeometry relative="1" as="geometry" />
        </mxCell>
        <mxCell id="X5_SJ7del2LNC4ogo3b6-3" value="&lt;font face=&quot;Ubuntu&quot; style=&quot;font-size: 20px;&quot;&gt;x11&lt;/font&gt;" style="ellipse;whiteSpace=wrap;html=1;aspect=fixed;strokeWidth=2;" parent="1" vertex="1">
          <mxGeometry x="360" y="504" width="60" height="60" as="geometry" />
        </mxCell>
        <mxCell id="X5_SJ7del2LNC4ogo3b6-7" value="&lt;font face=&quot;Ubuntu&quot; style=&quot;font-size: 16px;&quot;&gt;hold t8&lt;/font&gt;" style="text;html=1;align=center;verticalAlign=middle;whiteSpace=wrap;rounded=0;fontFamily=Helvetica;fontSize=12;fontColor=default;labelBackgroundColor=default;resizable=0;" parent="1" vertex="1">
          <mxGeometry x="480" y="630" width="60" height="30" as="geometry" />
        </mxCell>
        <mxCell id="X5_SJ7del2LNC4ogo3b6-9" value="&lt;font face=&quot;Ubuntu&quot; style=&quot;font-size: 16px;&quot;&gt;v13/14&lt;/font&gt;" style="text;html=1;align=center;verticalAlign=middle;whiteSpace=wrap;rounded=0;fontFamily=Helvetica;fontSize=12;fontColor=default;labelBackgroundColor=default;resizable=1;" parent="1" vertex="1">
          <mxGeometry x="475" y="570" width="70" height="30" as="geometry" />
        </mxCell>
        <mxCell id="X5_SJ7del2LNC4ogo3b6-10" value="&lt;font face=&quot;Ubuntu&quot; style=&quot;font-size: 16px;&quot;&gt;v15/16/11&lt;/font&gt;" style="text;html=1;align=center;verticalAlign=middle;whiteSpace=wrap;rounded=0;fontFamily=Helvetica;fontSize=12;fontColor=default;labelBackgroundColor=default;resizable=1;" parent="1" vertex="1">
          <mxGeometry x="347.5" y="570" width="85" height="30" as="geometry" />
        </mxCell>
        <mxCell id="X5_SJ7del2LNC4ogo3b6-11" value="&lt;font face=&quot;Ubuntu&quot; style=&quot;font-size: 16px;&quot;&gt;v2, v8&lt;/font&gt;" style="text;html=1;align=center;verticalAlign=middle;whiteSpace=wrap;rounded=0;fontFamily=Helvetica;fontSize=12;fontColor=default;labelBackgroundColor=default;resizable=1;" parent="1" vertex="1">
          <mxGeometry x="580" y="170" width="100" height="30" as="geometry" />
        </mxCell>
        <mxCell id="Gpijr3N0TQ3NnMNPhUuI-2" value="&lt;font face=&quot;Ubuntu&quot; style=&quot;font-size: 16px;&quot;&gt;hold tB&lt;/font&gt;" style="text;html=1;align=center;verticalAlign=middle;whiteSpace=wrap;rounded=0;fontFamily=Helvetica;fontSize=12;fontColor=default;labelBackgroundColor=default;resizable=1;" parent="1" vertex="1">
          <mxGeometry x="460" y="600" width="100" height="30" as="geometry" />
        </mxCell>
      </root>
    </mxGraphModel>
  </diagram>
</mxfile>
