\relax 
\providecommand\hyper@newdestlabel[2]{}
\providecommand\HyperFirstAtBeginDocument{\AtBeginDocument}
\HyperFirstAtBeginDocument{\ifx\hyper@anchor\@undefined
\global\let\oldcontentsline\contentsline
\gdef\contentsline#1#2#3#4{\oldcontentsline{#1}{#2}{#3}}
\global\let\oldnewlabel\newlabel
\gdef\newlabel#1#2{\newlabelxx{#1}#2}
\gdef\newlabelxx#1#2#3#4#5#6{\oldnewlabel{#1}{{#2}{#3}}}
\AtEndDocument{\ifx\hyper@anchor\@undefined
\let\contentsline\oldcontentsline
\let\newlabel\oldnewlabel
\fi}
\fi}
\global\let\hyper@last\relax 
\gdef\HyperFirstAtBeginDocument#1{#1}
\providecommand\HyField@AuxAddToFields[1]{}
\providecommand\HyField@AuxAddToCoFields[2]{}
\@writefile{toc}{\contentsline {section}{Introduction}{1}{section*.1}\protected@file@percent }
\@writefile{toc}{\contentsline {section}{Scientific Thinking}{1}{section*.2}\protected@file@percent }
\@writefile{toc}{\contentsline {section}{Eine nicht allzu ferne Zukunft}{2}{section*.3}\protected@file@percent }
\@writefile{toc}{\contentsline {subsection}{Displaytechnologie}{2}{section*.4}\protected@file@percent }
\@writefile{toc}{\contentsline {subsection}{Stellenwert einer Bibliothek}{3}{section*.5}\protected@file@percent }
\@writefile{toc}{\contentsline {subsection}{Assistierte Strafverfolgung}{3}{section*.6}\protected@file@percent }
\@writefile{toc}{\contentsline {subsection}{Speichertechnologie}{4}{section*.7}\protected@file@percent }
\@writefile{toc}{\contentsline {subsection}{Robotik}{4}{section*.8}\protected@file@percent }
\@writefile{toc}{\contentsline {subsection}{Outlook}{5}{section*.9}\protected@file@percent }
\@writefile{toc}{\contentsline {section}{Problemstellungen in ``Robot and Frank''}{5}{section*.10}\protected@file@percent }
\@writefile{toc}{\contentsline {subsection}{Diverse Interessensgebiete}{6}{section*.11}\protected@file@percent }
\@writefile{toc}{\contentsline {section}{Gestaltungsvorschlag: intelligente Systeme}{6}{section*.12}\protected@file@percent }
\@writefile{toc}{\contentsline {subsection}{Bionischer Ansatz}{7}{section*.13}\protected@file@percent }
\@writefile{toc}{\contentsline {subsection}{{\"U}bersicht ``Simulating the Mind''}{8}{section*.14}\protected@file@percent }
\@writefile{toc}{\contentsline {subsection}{intelligente Systeme}{9}{section*.15}\protected@file@percent }
\@writefile{toc}{\contentsline {section}{Denkweise 2}{9}{section*.16}\protected@file@percent }
\@writefile{toc}{\contentsline {section}{Denkweise 3}{9}{section*.17}\protected@file@percent }
\bibdata{Literature}
\bibstyle{ACM-Reference-Format}
\newlabel{tocindent-1}{0pt}
\newlabel{tocindent0}{0pt}
\newlabel{tocindent1}{0pt}
\newlabel{tocindent2}{0pt}
\newlabel{tocindent3}{0pt}
\@writefile{toc}{\contentsline {section}{Diskussion}{10}{section*.18}\protected@file@percent }
\@writefile{toc}{\contentsline {section}{Ausblick}{10}{section*.19}\protected@file@percent }
\newlabel{TotPages}{{10}{10}{}{page.10}{}}
